An introduction to the MoleculeExperiment Class • MoleculeExperiment
…
Getters

The main getters are molecules() and boundaries(). NOTE: the output of these methods is the ME nested list, which can be very large on screen. Thus, these getters should be used when wanting to work with the data. To quickly view the slot contents, use strMolecules() and strBoundaries() instead.

# NOTE: output not shown as it is too large
# access molecules slot
molecules(me)
# access cell boundary information in boundaries slot
boundaries(me, "cell")

For ease of use, these getters have arguments that enable the transformation of the data from a nested ME list format to a data.frame format.

molecules(me, assayName = "detected", flatten = TRUE)
#> # A tibble: 1,739 × 4
#>    x_location y_location feature_name  sample_id                                
#>  *      <dbl>      <dbl> <chr>         <chr>                                    
#>  1      4918.      6411. 2010300C02Rik Xenium_V1_FF_Mouse_Brain_MultiSection_1_…
#>  2      4901.      6417. 2010300C02Rik Xenium_V1_FF_Mouse_Brain_MultiSection_1_…
#>  3      4901.      6417. 2010300C02Rik Xenium_V1_FF_Mouse_Brain_MultiSection_1_…
#>  4      4910.      6417. 2010300C02Rik Xenium_V1_FF_Mouse_Brain_MultiSection_1_…
#>  5      4908.      6413. 2010300C02Rik Xenium_V1_FF_Mouse_Brain_MultiSection_1_…
#>  6      4911.      6407. 2010300C02Rik Xenium_V1_FF_Mouse_Brain_MultiSection_1_…
#>  7      4915.      6411. 2010300C02Rik Xenium_V1_FF_Mouse_Brain_MultiSection_1_…
#>  8      4916.      6412. 2010300C02Rik Xenium_V1_FF_Mouse_Brain_MultiSection_1_…
#>  9      4901.      6415. 2010300C02Rik Xenium_V1_FF_Mouse_Brain_MultiSection_1_…
#> 10      4906.      6417. 2010300C02Rik Xenium_V1_FF_Mouse_Brain_MultiSection_1_…
#> # ℹ 1,729 more rows

boundaries(me, assayName = "cell", flatten = TRUE)
#> # A tibble: 182 × 4
#>    x_location y_location segment_id sample_id                                   
#>  *      <dbl>      <dbl> <chr>      <chr>                                       
#>  1      4905.      6400. 67500      Xenium_V1_FF_Mouse_Brain_MultiSection_1_outs
#>  2      4899.      6401. 67500      Xenium_V1_FF_Mouse_Brain_MultiSection_1_outs
#>  3      4894.      6408. 67500      Xenium_V1_FF_Mouse_Brain_MultiSection_1_outs
#>  4      4890.      6418. 67500      Xenium_V1_FF_Mouse_Brain_MultiSection_1_outs
#>  5      4887.      6423. 67500      Xenium_V1_FF_Mouse_Brain_MultiSection_1_outs
#>  6      4887.      6425. 67500      Xenium_V1_FF_Mouse_Brain_MultiSection_1_outs
#>  7      4890.      6427. 67500      Xenium_V1_FF_Mouse_Brain_MultiSection_1_outs
#>  8      4891.      6427. 67500      Xenium_V1_FF_Mouse_Brain_MultiSection_1_outs
#>  9      4894.      6426. 67500      Xenium_V1_FF_Mouse_Brain_MultiSection_1_outs
#> 10      4908.      6421. 67500      Xenium_V1_FF_Mouse_Brain_MultiSection_1_outs
#> # ℹ 172 more rows
…
