Accessor functions to work with MoleculeExperiment objects — accessors • MoleculeExperiment
…
#> # A tibble: 1 × 2
#>   x_location y_location
#>        <dbl>      <dbl>
#> 1      4912.      6400.
#> 
#> $detected$Xenium_V1_FF_Mouse_Brain_MultiSection_1_outs$Aqp4
#> # A tibble: 3 × 2
#>   x_location y_location
#>        <dbl>      <dbl>
#> 1      4902.      6404.
#> 2      4904.      6408.
#> 3      4912.      6420.
#> 
#> $detected$Xenium_V1_FF_Mouse_Brain_MultiSection_1_outs$Arc
#> # A tibble: 32 × 2
#>    x_location y_location
#>         <dbl>      <dbl>
#>  1      4904.      6404.
#>  2      4913.      6411.
#>  3      4919.      6412.
#>  4      4919.      6419.
#>  5      4907.      6410.
#>  6      4911.      6413.
#>  7      4912.      6417.
#>  8      4915.      6406.
#>  9      4915.      6414.
#> 10      4917.      6414.
#> # ℹ 22 more rows
…
#> 1      4919.      6414.
#> 2      4911.      6407.
#> 3      4912.      6414.
#> 4      4917.      6409.
#> 
#> $detected$Xenium_V1_FF_Mouse_Brain_MultiSection_1_outs$Cux2
#> # A tibble: 3 × 2
#>   x_location y_location
#>        <dbl>      <dbl>
#> 1      4911.      6418.
#> 2      4915.      6406.
#> 3      4920.      6413.
#> 
#> $detected$Xenium_V1_FF_Mouse_Brain_MultiSection_1_outs$Dkk3
#> # A tibble: 32 × 2
#>    x_location y_location
#>         <dbl>      <dbl>
#>  1      4902.      6415.
#>  2      4903.      6403.
#>  3      4908.      6402.
#>  4      4917.      6415.
#>  5      4918.      6416.
#>  6      4920.      6415.
#>  7      4902.      6414.
#>  8      4905.      6415.
#>  9      4914.      6404.
#> 10      4915.      6417.
#> # ℹ 22 more rows
…
#>  8      4919.      6412.
#>  9      4914.      6411.
#> 10      4915.      6405.
#> 11      4915.      6409.
#> 12      4915.      6412.
#> 13      4918.      6420.
#> 14      4919.      6416.
#> 15      4910.      6408.
#> 16      4912.      6407.
#> 17      4915.      6415.
#> 18      4918.      6406.
#> 19      4920.      6417.
#> 
#> $detected$Xenium_V1_FF_Mouse_Brain_MultiSection_1_outs$Epha4
#> # A tibble: 37 × 2
#>    x_location y_location
#>         <dbl>      <dbl>
#>  1      4906.      6407.
#>  2      4908.      6412.
#>  3      4909.      6410.
#>  4      4916.      6410.
#>  5      4918.      6413.
#>  6      4903.      6416.
#>  7      4907.      6413.
#>  8      4911.      6414.
#>  9      4912.      6409.
#> 10      4913.      6416.
#> # ℹ 27 more rows
…
#>         <dbl>      <dbl>
#>  1      4911.      6416.
#>  2      4912.      6409.
#>  3      4917.      6411.
#>  4      4918.      6416.
#>  5      4910.      6407.
#>  6      4902.      6410.
#>  7      4903.      6411.
#>  8      4913.      6407.
#>  9      4915.      6408.
#> 10      4917.      6415.
#> 11      4900.      6409.
#> 
#> $detected$Xenium_V1_FF_Mouse_Brain_MultiSection_1_outs$Id2
#> # A tibble: 31 × 2
#>    x_location y_location
#>         <dbl>      <dbl>
#>  1      4902.      6412.
#>  2      4904.      6416.
#>  3      4904.      6410.
#>  4      4910.      6416.
#>  5      4914.      6405.
#>  6      4915.      6414.
#>  7      4917.      6412.
#>  8      4920.      6416.
#>  9      4904.      6408.
#> 10      4907.      6408.
#> # ℹ 21 more rows
…
#> # A tibble: 3 × 2
#>   x_location y_location
#>        <dbl>      <dbl>
#> 1      4903.      6414.
#> 2      4919.      6417.
#> 3      4901.      6408.
#> 
#> $detected$Xenium_V1_FF_Mouse_Brain_MultiSection_1_outs$Inpp4b
#> # A tibble: 1 × 2
#>   x_location y_location
#>        <dbl>      <dbl>
#> 1      4916.      6407.
#> 
#> $detected$Xenium_V1_FF_Mouse_Brain_MultiSection_1_outs$Kcnh5
#> # A tibble: 23 × 2
#>    x_location y_location
#>         <dbl>      <dbl>
#>  1      4901.      6409.
#>  2      4903.      6408.
#>  3      4906.      6415.
#>  4      4907.      6409.
#>  5      4908.      6403.
#>  6      4909.      6409.
#>  7      4912.      6400.
#>  8      4915.      6412.
#>  9      4915.      6416.
#> 10      4916.      6412.
#> # ℹ 13 more rows
#> 
#> $detected$Xenium_V1_FF_Mouse_Brain_MultiSection_1_outs$Kctd12
#> # A tibble: 2 × 2
#>   x_location y_location
#>        <dbl>      <dbl>
#> 1      4905.      6409.
#> 2      4920.      6411.
#> 
#> $detected$Xenium_V1_FF_Mouse_Brain_MultiSection_1_outs$Lamp5
#> # A tibble: 24 × 2
#>    x_location y_location
#>         <dbl>      <dbl>
#>  1      4901.      6403.
#>  2      4903.      6415.
#>  3      4909.      6408.
#>  4      4910.      6403.
#>  5      4911.      6406.
#>  6      4918.      6411.
#>  7      4920.      6415.
#>  8      4913.      6413.
#>  9      4914.      6419.
#> 10      4908.      6411.
#> # ℹ 14 more rows
…
#>    x_location y_location
#>         <dbl>      <dbl>
#>  1      4918.      6417.
#>  2      4919.      6414.
#>  3      4920.      6412.
#>  4      4908.      6419.
#>  5      4914.      6408.
#>  6      4907.      6406.
#>  7      4919.      6411.
#>  8      4902.      6415.
#>  9      4916.      6408.
#> 10      4917.      6420.
#> 
#> $detected$Xenium_V1_FF_Mouse_Brain_MultiSection_1_outs$Meis2
#> # A tibble: 28 × 2
#>    x_location y_location
#>         <dbl>      <dbl>
#>  1      4903.      6418.
#>  2      4904.      6414.
#>  3      4911.      6406.
#>  4      4913.      6403.
#>  5      4915.      6419.
#>  6      4917.      6414.
#>  7      4917.      6410.
#>  8      4904.      6413.
#>  9      4908.      6402.
#> 10      4912.      6406.
#> # ℹ 18 more rows
…
#> 1      4903.      6411.
#> 2      4915.      6405.
#> 3      4914.      6407.
#> 4      4916.      6407.
#> 5      4916.      6407.
#> 
#> $detected$Xenium_V1_FF_Mouse_Brain_MultiSection_1_outs$Neto2
#> # A tibble: 2 × 2
#>   x_location y_location
#>        <dbl>      <dbl>
#> 1      4920.      6417.
#> 2      4914.      6412.
#> 
#> $detected$Xenium_V1_FF_Mouse_Brain_MultiSection_1_outs$Neurod6
#> # A tibble: 46 × 2
#>    x_location y_location
#>         <dbl>      <dbl>
#>  1      4900.      6407.
#>  2      4900.      6416.
#>  3      4902.      6414.
#>  4      4903.      6415.
#>  5      4904.      6412.
#>  6      4905.      6419.
#>  7      4909.      6416.
#>  8      4910.      6413.
#>  9      4911.      6409.
#> 10      4912.      6420.
#> # ℹ 36 more rows
…
#> # A tibble: 9 × 2
#>   x_location y_location
#>        <dbl>      <dbl>
#> 1      4911.      6412.
#> 2      4911.      6409.
#> 3      4917.      6409.
#> 4      4904.      6411.
#> 5      4916.      6417.
#> 6      4902.      6409.
#> 7      4912.      6404.
#> 8      4916.      6416.
#> 9      4917.      6416.
#> 
#> $detected$Xenium_V1_FF_Mouse_Brain_MultiSection_1_outs$Nrep
#> # A tibble: 24 × 2
#>    x_location y_location
#>         <dbl>      <dbl>
#>  1      4900.      6408.
#>  2      4901.      6410.
#>  3      4904.      6420.
#>  4      4905.      6416.
#>  5      4908.      6415.
#>  6      4909.      6408.
#>  7      4909.      6411.
#>  8      4912.      6407.
#>  9      4913.      6406.
#> 10      4901.      6411.
#> # ℹ 14 more rows
#> 
#> $detected$Xenium_V1_FF_Mouse_Brain_MultiSection_1_outs$Nrn1
#> # A tibble: 55 × 2
#>    x_location y_location
#>         <dbl>      <dbl>
#>  1      4903.      6412.
#>  2      4907.      6408.
#>  3      4911.      6412.
#>  4      4911.      6404.
#>  5      4914.      6402.
#>  6      4914.      6415.
#>  7      4914.      6413.
#>  8      4915.      6407.
#>  9      4915.      6414.
#> 10      4916.      6414.
#> # ℹ 45 more rows
…
#> $detected$Xenium_V1_FF_Mouse_Brain_MultiSection_1_outs$Rbp4
#> # A tibble: 1 × 2
#>   x_location y_location
#>        <dbl>      <dbl>
#> 1      4917.      6413.
#> 
#> $detected$Xenium_V1_FF_Mouse_Brain_MultiSection_1_outs$Rfx4
#> # A tibble: 2 × 2
#>   x_location y_location
#>        <dbl>      <dbl>
#> 1      4907.      6415.
#> 2      4906.      6413.
#> 
#> $detected$Xenium_V1_FF_Mouse_Brain_MultiSection_1_outs$Rims3
#> # A tibble: 42 × 2
#>    x_location y_location
#>         <dbl>      <dbl>
#>  1      4901.      6412.
#>  2      4902.      6400.
#>  3      4902.      6411.
#>  4      4902.      6415.
#>  5      4903.      6419.
#>  6      4905.      6413.
#>  7      4905.      6415.
#>  8      4906.      6413.
#>  9      4908.      6409.
#> 10      4912.      6416.
#> # ℹ 32 more rows
…
#> $detected$Xenium_V1_FF_Mouse_Brain_MultiSection_1_outs$Shisa6
#> # A tibble: 1 × 2
#>   x_location y_location
#>        <dbl>      <dbl>
#> 1      4904.      6417.
#> 
#> $detected$Xenium_V1_FF_Mouse_Brain_MultiSection_1_outs$Sipa1l3
#> # A tibble: 2 × 2
#>   x_location y_location
#>        <dbl>      <dbl>
#> 1      4912.      6407.
#> 2      4908.      6411.
#> 
#> $detected$Xenium_V1_FF_Mouse_Brain_MultiSection_1_outs$Slc17a6
#> # A tibble: 21 × 2
#>    x_location y_location
#>         <dbl>      <dbl>
#>  1      4912.      6418.
#>  2      4913.      6415.
#>  3      4915.      6413.
#>  4      4916.      6405.
#>  5      4903.      6415.
#>  6      4907.      6414.
#>  7      4911.      6417.
#>  8      4917.      6415.
#>  9      4904.      6416.
#> 10      4905.      6414.
#> # ℹ 11 more rows
#> 
#> $detected$Xenium_V1_FF_Mouse_Brain_MultiSection_1_outs$Slc17a7
#> # A tibble: 41 × 2
#>    x_location y_location
#>         <dbl>      <dbl>
#>  1      4902.      6414.
#>  2      4902.      6408.
#>  3      4903.      6409.
#>  4      4906.      6418.
#>  5      4908.      6409.
#>  6      4908.      6404.
#>  7      4908.      6407.
#>  8      4910.      6415.
#>  9      4910.      6409.
#> 10      4914.      6410.
#> # ℹ 31 more rows
…
#> 
#> $detected$Xenium_V1_FF_Mouse_Brain_MultiSection_2_outs$Aqp4
#> # A tibble: 7 × 2
#>   x_location y_location
#>        <dbl>      <dbl>
#> 1      4917.      6409.
#> 2      4919.      6403.
#> 3      4914.      6404.
#> 4      4904.      6404.
#> 5      4914.      6418.
#> 6      4915.      6409.
#> 7      4917.      6402.
#> 
#> $detected$Xenium_V1_FF_Mouse_Brain_MultiSection_2_outs$Arc
#> # A tibble: 26 × 2
#>    x_location y_location
#>         <dbl>      <dbl>
#>  1      4900.      6409.
#>  2      4903.      6409.
#>  3      4910.      6412.
#>  4      4915.      6410.
#>  5      4915.      6405.
#>  6      4910.      6406.
#>  7      4910.      6414.
#>  8      4912.      6407.
#>  9      4918.      6406.
#> 10      4900.      6416.
#> # ℹ 16 more rows
…
#> 
#> $detected$Xenium_V1_FF_Mouse_Brain_MultiSection_2_outs$Cux2
#> # A tibble: 7 × 2
#>   x_location y_location
#>        <dbl>      <dbl>
#> 1      4909.      6401.
#> 2      4905.      6402.
#> 3      4905.      6404.
#> 4      4908.      6415.
#> 5      4919.      6417.
#> 6      4901.      6402.
#> 7      4919.      6418.
#> 
#> $detected$Xenium_V1_FF_Mouse_Brain_MultiSection_2_outs$Dkk3
#> # A tibble: 30 × 2
#>    x_location y_location
#>         <dbl>      <dbl>
#>  1      4900.      6408.
#>  2      4901.      6414.
#>  3      4902.      6412.
#>  4      4903.      6411.
#>  5      4905.      6418.
#>  6      4911.      6407.
#>  7      4912.      6417.
#>  8      4912.      6419.
#>  9      4914.      6402.
#> 10      4920.      6415.
#> # ℹ 20 more rows
…
#>  8      4904.      6407.
#>  9      4918.      6419.
#> 10      4914.      6414.
#> 11      4901.      6417.
#> 12      4909.      6415.
#> 13      4910.      6420.
#> 
#> $detected$Xenium_V1_FF_Mouse_Brain_MultiSection_2_outs$Ebf3
#> # A tibble: 1 × 2
#>   x_location y_location
#>        <dbl>      <dbl>
#> 1      4917.      6400.
#> 
#> $detected$Xenium_V1_FF_Mouse_Brain_MultiSection_2_outs$Epha4
#> # A tibble: 27 × 2
#>    x_location y_location
#>         <dbl>      <dbl>
#>  1      4903.      6411.
#>  2      4905.      6412.
#>  3      4907.      6410.
#>  4      4909.      6417.
#>  5      4912.      6415.
#>  6      4914.      6409.
#>  7      4914.      6410.
#>  8      4901.      6404.
#>  9      4902.      6407.
#> 10      4904.      6415.
#> # ℹ 17 more rows
…
#> 
#> $detected$Xenium_V1_FF_Mouse_Brain_MultiSection_2_outs$Hpcal1
#> # A tibble: 1 × 2
#>   x_location y_location
#>        <dbl>      <dbl>
#> 1      4918.      6417.
#> 
#> $detected$Xenium_V1_FF_Mouse_Brain_MultiSection_2_outs$Htr1f
#> # A tibble: 1 × 2
#>   x_location y_location
#>        <dbl>      <dbl>
#> 1      4915.      6405.
#> 
#> $detected$Xenium_V1_FF_Mouse_Brain_MultiSection_2_outs$Id2
#> # A tibble: 25 × 2
#>    x_location y_location
#>         <dbl>      <dbl>
#>  1      4900.      6408.
#>  2      4900.      6417.
#>  3      4907.      6407.
#>  4      4908.      6417.
#>  5      4904.      6416.
#>  6      4905.      6420.
#>  7      4919.      6418.
#>  8      4920.      6401.
#>  9      4902.      6416.
#> 10      4909.      6413.
#> # ℹ 15 more rows
…
#> 2      4909.      6404.
#> 3      4909.      6416.
#> 4      4907.      6403.
#> 
#> $detected$Xenium_V1_FF_Mouse_Brain_MultiSection_2_outs$Kctd12
#> # A tibble: 4 × 2
#>   x_location y_location
#>        <dbl>      <dbl>
#> 1      4903.      6407.
#> 2      4911.      6412.
#> 3      4907.      6417.
#> 4      4907.      6409.
#> 
#> $detected$Xenium_V1_FF_Mouse_Brain_MultiSection_2_outs$Lamp5
#> # A tibble: 42 × 2
#>    x_location y_location
#>         <dbl>      <dbl>
#>  1      4900.      6405.
#>  2      4900.      6406.
#>  3      4900.      6407.
#>  4      4901.      6420.
#>  5      4901.      6406.
#>  6      4904.      6412.
#>  7      4905.      6410.
#>  8      4906.      6404.
#>  9      4906.      6403.
#> 10      4906.      6419.
#> # ℹ 32 more rows
…
#>   x_location y_location
#>        <dbl>      <dbl>
#> 1      4918.      6419.
#> 2      4919.      6408.
#> 3      4908.      6408.
#> 4      4905.      6404.
#> 
#> $detected$Xenium_V1_FF_Mouse_Brain_MultiSection_2_outs$Npy2r
#> # A tibble: 1 × 2
#>   x_location y_location
#>        <dbl>      <dbl>
#> 1      4901.      6405.
#> 
#> $detected$Xenium_V1_FF_Mouse_Brain_MultiSection_2_outs$Nrep
#> # A tibble: 26 × 2
#>    x_location y_location
#>         <dbl>      <dbl>
#>  1      4900.      6415.
#>  2      4902.      6419.
#>  3      4904.      6414.
#>  4      4905.      6419.
#>  5      4906.      6412.
#>  6      4911.      6407.
#>  7      4911.      6419.
#>  8      4920.      6415.
#>  9      4900.      6411.
#> 10      4902.      6404.
#> # ℹ 16 more rows
#> 
#> $detected$Xenium_V1_FF_Mouse_Brain_MultiSection_2_outs$Nrn1
#> # A tibble: 45 × 2
#>    x_location y_location
#>         <dbl>      <dbl>
#>  1      4901.      6415.
#>  2      4901.      6404.
#>  3      4902.      6420.
#>  4      4902.      6414.
#>  5      4919.      6405.
#>  6      4900.      6410.
#>  7      4903.      6411.
#>  8      4906.      6419.
#>  9      4910.      6416.
#> 10      4918.      6414.
#> # ℹ 35 more rows
…
#> 2      4904.      6409.
#> 3      4908.      6402.
#> 4      4906.      6413.
#> 5      4910.      6410.
#> 6      4918.      6414.
#> 
#> $detected$Xenium_V1_FF_Mouse_Brain_MultiSection_2_outs$Pecam1
#> # A tibble: 2 × 2
#>   x_location y_location
#>        <dbl>      <dbl>
#> 1      4920.      6402.
#> 2      4920.      6401.
#> 
#> $detected$Xenium_V1_FF_Mouse_Brain_MultiSection_2_outs$Penk
#> # A tibble: 29 × 2
#>    x_location y_location
#>         <dbl>      <dbl>
#>  1      4905.      6410.
#>  2      4900.      6409.
#>  3      4901.      6415.
#>  4      4902.      6406.
#>  5      4902.      6416.
#>  6      4903.      6406.
#>  7      4904.      6420.
#>  8      4905.      6402.
#>  9      4906.      6409.
#> 10      4906.      6403.
#> # ℹ 19 more rows
…
#> 
#> $detected$Xenium_V1_FF_Mouse_Brain_MultiSection_2_outs$Sema6a
#> # A tibble: 1 × 2
#>   x_location y_location
#>        <dbl>      <dbl>
#> 1      4906.      6420.
#> 
#> $detected$Xenium_V1_FF_Mouse_Brain_MultiSection_2_outs$Sipa1l3
#> # A tibble: 1 × 2
#>   x_location y_location
#>        <dbl>      <dbl>
#> 1      4916.      6418.
#> 
#> $detected$Xenium_V1_FF_Mouse_Brain_MultiSection_2_outs$Slc17a7
#> # A tibble: 30 × 2
#>    x_location y_location
#>         <dbl>      <dbl>
#>  1      4902.      6404.
#>  2      4904.      6413.
#>  3      4907.      6420.
#>  4      4911.      6413.
#>  5      4917.      6419.
#>  6      4920.      6416.
#>  7      4900.      6410.
#>  8      4901.      6414.
#>  9      4901.      6410.
#> 10      4903.      6405.
#> # ℹ 20 more rows
…
#> # A tibble: 1 × 2
#>   x_location y_location
#>        <dbl>      <dbl>
#> 1      4910.      6401.
#> 
#> 
#> 
molecules(me, assayName = "detected", flatten = TRUE)
#> The transcripts from the detected assay were
#> retrieved. Other assay transcripts can be retrieved by specifying the assayName
#> argument.
#> The transcripts from the detected assay were
#> retrieved. Other assay transcripts can be retrieved by specifying the assayName
#> argument.
#> # A tibble: 1,739 × 4
#>    x_location y_location feature_name  sample_id                                
#>  *      <dbl>      <dbl> <chr>         <chr>                                    
#>  1      4918.      6411. 2010300C02Rik Xenium_V1_FF_Mouse_Brain_MultiSection_1_…
#>  2      4901.      6417. 2010300C02Rik Xenium_V1_FF_Mouse_Brain_MultiSection_1_…
#>  3      4901.      6417. 2010300C02Rik Xenium_V1_FF_Mouse_Brain_MultiSection_1_…
#>  4      4910.      6417. 2010300C02Rik Xenium_V1_FF_Mouse_Brain_MultiSection_1_…
#>  5      4908.      6413. 2010300C02Rik Xenium_V1_FF_Mouse_Brain_MultiSection_1_…
#>  6      4911.      6407. 2010300C02Rik Xenium_V1_FF_Mouse_Brain_MultiSection_1_…
#>  7      4915.      6411. 2010300C02Rik Xenium_V1_FF_Mouse_Brain_MultiSection_1_…
#>  8      4916.      6412. 2010300C02Rik Xenium_V1_FF_Mouse_Brain_MultiSection_1_…
#>  9      4901.      6415. 2010300C02Rik Xenium_V1_FF_Mouse_Brain_MultiSection_1_…
#> 10      4906.      6417. 2010300C02Rik Xenium_V1_FF_Mouse_Brain_MultiSection_1_…
#> # ℹ 1,729 more rows
…
#>  4      4912.      6397.
#>  5      4912.      6398.
#>  6      4916.      6405.
#>  7      4922.      6403.
#>  8      4923.      6403.
#>  9      4925.      6402.
#> 10      4925.      6401.
#> 11      4925.      6400.
#> 12      4925.      6394.
#> 13      4924.      6394.
#> 
#> 
#> 
boundaries(me, assayName = "cell", flatten = TRUE)
#> # A tibble: 182 × 4
#>    x_location y_location segment_id sample_id                                   
#>  *      <dbl>      <dbl> <chr>      <chr>                                       
#>  1      4905.      6400. 67500      Xenium_V1_FF_Mouse_Brain_MultiSection_1_outs
#>  2      4899.      6401. 67500      Xenium_V1_FF_Mouse_Brain_MultiSection_1_outs
#>  3      4894.      6408. 67500      Xenium_V1_FF_Mouse_Brain_MultiSection_1_outs
#>  4      4890.      6418. 67500      Xenium_V1_FF_Mouse_Brain_MultiSection_1_outs
#>  5      4887.      6423. 67500      Xenium_V1_FF_Mouse_Brain_MultiSection_1_outs
#>  6      4887.      6425. 67500      Xenium_V1_FF_Mouse_Brain_MultiSection_1_outs
#>  7      4890.      6427. 67500      Xenium_V1_FF_Mouse_Brain_MultiSection_1_outs
#>  8      4891.      6427. 67500      Xenium_V1_FF_Mouse_Brain_MultiSection_1_outs
#>  9      4894.      6426. 67500      Xenium_V1_FF_Mouse_Brain_MultiSection_1_outs
#> 10      4908.      6421. 67500      Xenium_V1_FF_Mouse_Brain_MultiSection_1_outs
#> # ℹ 172 more rows
…
